*** StoreID_test BEGINS ***


Initializing Gaudi ApplicationMgr using job opts ../share/StoreGateTestCommon.txt
JobOptionsSvc        INFO # =======> /home/sss/atlas/dvtest/build/../tests/../share/StoreGateTestCommon.txt
JobOptionsSvc        INFO # (5,1): ApplicationMgr.ExtSvc += ["StoreGateSvc/DetectorStore", "StoreGateSvc/HistoryStore", "StoreGateSvc/ConditionStore"]
JobOptionsSvc        INFO # (6,1): AuditorSvc.Auditors += ["AlgContextAuditor"]
JobOptionsSvc        INFO # (7,1): StoreGateSvc.OutputLevel = 1
JobOptionsSvc        INFO # (8,1): StoreGateSvc.ActivateHistory = 0
JobOptionsSvc        INFO # (9,1): CLIDSvc.OutputLevel = 2
JobOptionsSvc        INFO # (10,1): MessageSvc.useColors = 1
JobOptionsSvc        INFO Job options successfully read in from ../share/StoreGateTestCommon.txt
ApplicationMgr    SUCCESS 
====================================================================================================================================
                                                   Welcome to ApplicationMgr (GaudiCoreSvc v27r1p99)
                                          running on karma on Wed Feb  8 08:13:04 2017
====================================================================================================================================[m
ApplicationMgr       INFO Application Manager Configured successfully[m
ClassIDSvc           INFO  getRegistryEntries: read 1773 CLIDRegistry entries for module ALL[m
[93;1mEventLoopMgr      WARNING Unable to locate service "EventSelector" [m
[93;1mEventLoopMgr      WARNING No events will be processed from external input.[m
[93;1mHistogramPersis...WARNING Histograms saving not required.[m
ApplicationMgr       INFO Application Manager Initialized successfully[m
ApplicationMgr Ready
StoreGateSvc        DEBUG Property update for OutputLevel : new value = 1
StoreGateSvc        DEBUG Service base class initialized successfully
StoreGateSvc      VERBOSE Initializing StoreGateSvc
StoreGateSvc        DEBUG trying to create store SGImplSvc/StoreGateSvc_Impl
StoreGateSvc_Impl   DEBUG Property update for OutputLevel : new value = 1
StoreGateSvc_Impl VERBOSE Initializing StoreGateSvc_Impl
StoreGateSvc_Impl   DEBUG Service base class initialized successfully
*** StoreID_test OK ***
