TagInfoMgr                                          DEBUG initialize()
TagInfoMgr                                          DEBUG ExtraTagValuePairs 
TagInfoMgr                                          DEBUG Adding public ToolHandle tool ToolSvc.IOVDbMetaDataTool (IOVDbMetaDataTool)
TagInfoMgr                                          DEBUG addTag - adding name/value pairs: IOVDbGlobalTag OFLCOND-SDR-BS14T-IBL-06
TagInfoMgr                                          DEBUG addTag - adding name/value pairs: /LAR/Identifier/CalibIdMap LARIdentifierCalibIdMap-012
TagInfoMgr                                          DEBUG removeTagFromInput - adding tag name to be removed: /LAR/Identifier/CalibIdMap
TagInfoMgr                                          DEBUG addTag - adding name/value pairs: /LAR/Identifier/FebRodMap LARIdentifierFebRodMap-005
TagInfoMgr                                          DEBUG removeTagFromInput - adding tag name to be removed: /LAR/Identifier/FebRodMap
TagInfoMgr                                          DEBUG addTag - adding name/value pairs: /LAR/Identifier/OnOffIdMap LARIdentifierOnOffIdMap-012
TagInfoMgr                                          DEBUG removeTagFromInput - adding tag name to be removed: /LAR/Identifier/OnOffIdMap
TagInfoMgr                                          DEBUG removeTagFromInput - adding tag name to be removed: /TILE/OFL02/CALIB/CES
TagInfoMgr                                          DEBUG removeTagFromInput - adding tag name to be removed: /TILE/OFL02/CALIB/CIS/FIT/LIN
TagInfoMgr                                          DEBUG removeTagFromInput - adding tag name to be removed: /TILE/OFL02/CALIB/CIS/FIT/NLN
TagInfoMgr                                          DEBUG removeTagFromInput - adding tag name to be removed: /TILE/OFL02/CALIB/EMS
TagInfoMgr                                          DEBUG removeTagFromInput - adding tag name to be removed: /TILE/OFL02/CALIB/LAS/FIBER
TagInfoMgr                                          DEBUG removeTagFromInput - adding tag name to be removed: /TILE/OFL02/CALIB/LAS/LIN
TagInfoMgr                                          DEBUG removeTagFromInput - adding tag name to be removed: /TILE/OFL02/CALIB/LAS/NLN
TagInfoMgr                                          DEBUG removeTagFromInput - adding tag name to be removed: /TagInfo
TagInfoMgr                                          DEBUG start()
TagInfoMgr                                          DEBUG handle: received incident of type BeginInputFile from EventSelector
TagInfoMgr                                          DEBUG handle: received incident of type BeginRun from AthenaEventLoopMgr
TagInfoMgr                                          DEBUG handle: BeginRun incident - Event ID: [1,1:0] 
TagInfoMgr                                          DEBUG handle: conditionsRun = 1
TagInfoMgr                                          DEBUG handle: currentRun = 1
TagInfoMgr                                          DEBUG Signaled begin run to IOVDbSvc [1,1:0]
TagInfoMgr                                          DEBUG updateTagInfo: getting /TagInfo
TagInfoMgr                                          DEBUG updateTagInfo: Retrieved TagInfo meta data from detStore. size 1
TagInfoMgr                                          DEBUG fillTagInfo: 
TagInfoMgr                                          DEBUG fillTagInfo: - reading Tags from infile IOV metadata
TagInfoMgr                                          DEBUG fillTagInfo: Did NOT add tag - on remove list: name/tag: /LAR/Identifier/CalibIdMap LARIdentifierCalibIdMap-012
TagInfoMgr                                          DEBUG fillTagInfo: Added value/tag to TagInfo as input tag /LAR/Identifier/CalibIdMap LARIdentifierCalibIdMap-012
TagInfoMgr                                          DEBUG fillTagInfo: Did NOT add tag - on remove list: name/tag: /LAR/Identifier/FebRodMap LARIdentifierFebRodMap-005
TagInfoMgr                                          DEBUG fillTagInfo: Added value/tag to TagInfo as input tag /LAR/Identifier/FebRodMap LARIdentifierFebRodMap-005
TagInfoMgr                                          DEBUG fillTagInfo: Did NOT add tag - on remove list: name/tag: /LAR/Identifier/OnOffIdMap LARIdentifierOnOffIdMap-012
TagInfoMgr                                          DEBUG fillTagInfo: Added value/tag to TagInfo as input tag /LAR/Identifier/OnOffIdMap LARIdentifierOnOffIdMap-012
TagInfoMgr                                          DEBUG fillTagInfo: Added name/tag to TagInfo IOVDbGlobalTag OFLCOND-SDR-BS14T-IBL-06
TagInfoMgr                                          DEBUG fillTagInfo: Added value/tag to TagInfo as input tag IOVDbGlobalTag OFLCOND-SDR-BS14T-IBL-06
TagInfoMgr                                          DEBUG fillTagInfo: Added name/tag to TagInfo TagA1 A1
TagInfoMgr                                          DEBUG fillTagInfo: Added value/tag to TagInfo as input tag TagA1 A1
TagInfoMgr                                          DEBUG fillTagInfo: Added name/tag to TagInfo TagB1 B1
TagInfoMgr                                          DEBUG fillTagInfo: Added value/tag to TagInfo as input tag TagB1 B1
TagInfoMgr                                          DEBUG fillTagInfo: Added name/tag to TagInfo TagD1 D1
TagInfoMgr                                          DEBUG fillTagInfo: Added value/tag to TagInfo as input tag TagD1 D1
TagInfoMgr                                          DEBUG fillTagInfo: print out tags before adding extra tags
TagInfoMgr                                          DEBUG TagInfo tag: 
TagInfoMgr                                          DEBUG fillTagInfo: Adding extra value/tag pair: /LAR/Identifier/CalibIdMap LARIdentifierCalibIdMap-012
TagInfoMgr                                          DEBUG fillTagInfo: Adding extra value/tag pair: /LAR/Identifier/FebRodMap LARIdentifierFebRodMap-005
TagInfoMgr                                          DEBUG fillTagInfo: Adding extra value/tag pair: /LAR/Identifier/OnOffIdMap LARIdentifierOnOffIdMap-012
TagInfoMgr                                          DEBUG fillTagInfo: Adding extra value/tag pair: IOVDbGlobalTag OFLCOND-SDR-BS14T-IBL-06
TagInfoMgr                                          DEBUG fillTagInfo: print out tags
TagInfoMgr                                          DEBUG TagInfo tag: 
TagInfoMgr                                          DEBUG updateTagInfo: Filled TagInfo from file meta data 
TagInfoMgr                                          DEBUG entering fillMetaData
TagInfoMgr                                          DEBUG fillMetaData: Adding value/tag pairs to file meta data: 
TagInfoMgr                                          DEBUG /LAR/Identifier/CalibIdMap LARIdentifierCalibIdMap-012
TagInfoMgr                                          DEBUG /LAR/Identifier/FebRodMap LARIdentifierFebRodMap-005
TagInfoMgr                                          DEBUG /LAR/Identifier/OnOffIdMap LARIdentifierOnOffIdMap-012
TagInfoMgr                                          DEBUG IOVDbGlobalTag OFLCOND-SDR-BS14T-IBL-06
TagInfoMgr                                          DEBUG TagA1 A1
TagInfoMgr                                          DEBUG TagB1 B1
TagInfoMgr                                          DEBUG TagD1 D1
TagInfoMgr                                          DEBUG IOV minRange from IOVMetaData: {[1,0] - [3,0]}
TagInfoMgr                                          DEBUG fillMetaData: run number is in previous IOVRange: 1 {[1,0] - [3,0]}
TagInfoMgr                                          DEBUG fillMetaData: start, stop: [1,0] [3,0]
TagInfoMgr                                          DEBUG updateTagInfo: Wrote TagInfo to MetaDataStore 
TagInfoMgr                                          DEBUG handle: TagInfo successfully processed by IOVDbSvc to register callback
TagInfoMgr                                          DEBUG notifyListeners  (1 registered)
TagInfoMgr                                          DEBUG handle: received incident of type BeginRun from AthenaEventLoopMgr
TagInfoMgr                                          DEBUG handle: BeginRun incident - Event ID: [2,1:85] 
TagInfoMgr                                          DEBUG handle: conditionsRun = 2
TagInfoMgr                                          DEBUG handle: currentRun = 2
TagInfoMgr                                          DEBUG updateTagInfo: getting /TagInfo
TagInfoMgr                                          DEBUG updateTagInfo: Retrieved TagInfo meta data from detStore. size 1
TagInfoMgr                                          DEBUG fillTagInfo: 
TagInfoMgr                                          DEBUG fillTagInfo: - reading Tags from infile IOV metadata
TagInfoMgr                                          DEBUG fillTagInfo: Did NOT add tag - on remove list: name/tag: /LAR/Identifier/CalibIdMap LARIdentifierCalibIdMap-012
TagInfoMgr                                          DEBUG fillTagInfo: Added value/tag to TagInfo as input tag /LAR/Identifier/CalibIdMap LARIdentifierCalibIdMap-012
TagInfoMgr                                          DEBUG fillTagInfo: Did NOT add tag - on remove list: name/tag: /LAR/Identifier/FebRodMap LARIdentifierFebRodMap-005
TagInfoMgr                                          DEBUG fillTagInfo: Added value/tag to TagInfo as input tag /LAR/Identifier/FebRodMap LARIdentifierFebRodMap-005
TagInfoMgr                                          DEBUG fillTagInfo: Did NOT add tag - on remove list: name/tag: /LAR/Identifier/OnOffIdMap LARIdentifierOnOffIdMap-012
TagInfoMgr                                          DEBUG fillTagInfo: Added value/tag to TagInfo as input tag /LAR/Identifier/OnOffIdMap LARIdentifierOnOffIdMap-012
TagInfoMgr                                          DEBUG fillTagInfo: Added name/tag to TagInfo IOVDbGlobalTag OFLCOND-SDR-BS14T-IBL-06
TagInfoMgr                                          DEBUG fillTagInfo: Added value/tag to TagInfo as input tag IOVDbGlobalTag OFLCOND-SDR-BS14T-IBL-06
TagInfoMgr                                          DEBUG fillTagInfo: Added name/tag to TagInfo TagA1 A1
TagInfoMgr                                          DEBUG fillTagInfo: Added value/tag to TagInfo as input tag TagA1 A1
TagInfoMgr                                          DEBUG fillTagInfo: Added name/tag to TagInfo TagB1 B1
TagInfoMgr                                          DEBUG fillTagInfo: Added value/tag to TagInfo as input tag TagB1 B1
TagInfoMgr                                          DEBUG fillTagInfo: Added name/tag to TagInfo TagD1 D1
TagInfoMgr                                          DEBUG fillTagInfo: Added value/tag to TagInfo as input tag TagD1 D1
TagInfoMgr                                          DEBUG fillTagInfo: print out tags before adding extra tags
TagInfoMgr                                          DEBUG TagInfo tag: 
TagInfoMgr                                          DEBUG fillTagInfo: Adding extra value/tag pair: /LAR/Identifier/CalibIdMap LARIdentifierCalibIdMap-012
TagInfoMgr                                          DEBUG fillTagInfo: Adding extra value/tag pair: /LAR/Identifier/FebRodMap LARIdentifierFebRodMap-005
TagInfoMgr                                          DEBUG fillTagInfo: Adding extra value/tag pair: /LAR/Identifier/OnOffIdMap LARIdentifierOnOffIdMap-012
TagInfoMgr                                          DEBUG fillTagInfo: Adding extra value/tag pair: IOVDbGlobalTag OFLCOND-SDR-BS14T-IBL-06
TagInfoMgr                                          DEBUG fillTagInfo: print out tags
TagInfoMgr                                          DEBUG TagInfo tag: 
TagInfoMgr                                          DEBUG updateTagInfo: Filled TagInfo from file meta data 
TagInfoMgr                                          DEBUG entering fillMetaData
TagInfoMgr                                          DEBUG fillMetaData: Adding value/tag pairs to file meta data: 
TagInfoMgr                                          DEBUG /LAR/Identifier/CalibIdMap LARIdentifierCalibIdMap-012
TagInfoMgr                                          DEBUG /LAR/Identifier/FebRodMap LARIdentifierFebRodMap-005
TagInfoMgr                                          DEBUG /LAR/Identifier/OnOffIdMap LARIdentifierOnOffIdMap-012
TagInfoMgr                                          DEBUG IOVDbGlobalTag OFLCOND-SDR-BS14T-IBL-06
TagInfoMgr                                          DEBUG TagA1 A1
TagInfoMgr                                          DEBUG TagB1 B1
TagInfoMgr                                          DEBUG TagD1 D1
TagInfoMgr                                          DEBUG fillMetaData: run number is in previous IOVRange: 2 {[1,0] - [3,0]}
TagInfoMgr                                          DEBUG fillMetaData: start, stop: [2,0] [3,0]
TagInfoMgr                                          DEBUG updateTagInfo: Wrote TagInfo to MetaDataStore 
TagInfoMgr                                          DEBUG notifyListeners  (1 registered)
TagInfoMgr                                          DEBUG finalize()
